{
  "type": "service_account",
  "project_id": "ionic-angular-course-a4e2b",
  "private_key_id": "f5396a89f2b60491a7a11224f41abd4c9b8d32ed",
  "private_key": "-----BEGIN PRIVATE KEY-----\nMIIEvAIBADANBgkqhkiG9w0BAQEFAASCBKYwggSiAgEAAoIBAQDV6Xn9O8kvXX8b\n2G7YPp8ggxLcrehgE4CtBsGffKj24byeGjebsfaQEesYqHmX7SqL4mzsG7Z1iNxh\nisZm8yAXzLkqF9p/5xqvMKgI6eQ0/5LDWi2A1tcBR9lNBChGtwUVUId9bGYc2gVy\nyJPIAI4OyjRM3odAO2BDFjY4GEiSBkRE4EOdgz+nAJ/z8MMb5WiGqEbEF+OJyCP9\n+myvnPXu9Olb3Ucd7ydDh8ITEwULxS37ctkpL+L43tyVowVJjlx8uKfOPvmQtEI7\nZwgjosDKjhfmkBvH66FcnN9jugPhGBtsYMLG9Zg25mu2+QzBX1aPXbUNpTJOIojM\nxJjo8FnxAgMBAAECggEAGlWSkC1/qnI6E19hIQPPkwDz7eFGg+puu05jQJtIEVGv\nxu5/FU6yxiCAlvHpuz2GMP+sbWJJg314dRUwsOyiMS/hxUf3vSqCN1pX+3Xw42Hp\ny10zECMSx8x0uOWnwDHooSu/bF5PkWJ5THzbLaJ82p8D0olMMQkGRCgMP3pk174O\nYCn3up1Cd+W60Oti6frvgiD9l9PxHlm2vOMxGAP2qH23sMhDlbu6DRtmrFSWXyVF\n/vCl0LvItg9IaW0YzuwwYBAgEWX99E3rdB4pwhgtQ8tvQUmZYPi7GLH5iaeDJRjZ\nwPHGphfRL3FFoNvsG6MTTq9ADtS8yxnJOOeWn51FSQKBgQDvZyfz4QUXlEOGln7B\nGxmXQeq4yVKKarmzrxy/RXbfGfumqsI8hijT9YIcw6RKJd6/ZHYJKKasC3sgpy6F\nS1Y5PYERJBeqTwrAJcI4oPEWwjjNkf0jIpahQJKnupkV3FNxZWmcDa4rmCywuIpP\nUQXdnL/7AuyIXcUMFDoLXE7DOQKBgQDkvepyrRehhqMrR5nTecA/kztpaKdvwlno\nwVFLIACaVGBxq/iHDJP9K+wF4WnAAMxlrMT71zBcaLxD3wSsOUjOY7XaZiupR8g0\n22NdJvEAV6zV082ne5N7cAvYGCZNbDYjfc3zfP1PfeP261yCIEUCLMFT6rx7usdq\nMUqAYAK0eQKBgEJNCU2LVgOvtfvCFhyYyr+PK9g9OTTIVeGjb4yxSjiDU6RWyjBE\n323EImKg9BDs6AGNavsiXPZsv47Nfh7APILhu6rpmfw6o7mPO3i/acVpyJ11/usK\nGzlRTsxQ6zCYsitHcLYdO80q+cV/dh59S+iSDsEPkD476eRsfZ7D07RRAoGANswY\nYih9RMDQTgn1G+hK2fAXh4T+t5NDnrLRGsIr4szb3d9oxlGJEll3TWFWyBxo2uKs\nvfgrKbgdgdTndaqzel4ArrVTOFZt69uyzhoKGh7m1MLMvZapGiUZcUc3xcxqm84D\njJUgye5Kslhn7PR2E7NNDSFqzelM5G+yfVaCz2ECgYAEk4jY0zfPPC/1pQdX52Pe\nyZO7rOSebfzD9CVvkCyyD8Py2cKVnkeOHbB1Z1piyQ5daQlE1XhsOkDg+qv9vyA+\ni9JHNpkBLJCDnPm3wrPsxPbjFAl4D9T3spop/cglredbcyvOdmrM02potFhBFRxW\n1P1N0SMUuWWYucWBoiCg6Q==\n-----END PRIVATE KEY-----\n",
  "client_email": "firebase-adminsdk-11qat@ionic-angular-course-a4e2b.iam.gserviceaccount.com",
  "client_id": "112139829981603735027",
  "auth_uri": "https://accounts.google.com/o/oauth2/auth",
  "token_uri": "https://oauth2.googleapis.com/token",
  "auth_provider_x509_cert_url": "https://www.googleapis.com/oauth2/v1/certs",
  "client_x509_cert_url": "https://www.googleapis.com/robot/v1/metadata/x509/firebase-adminsdk-11qat%40ionic-angular-course-a4e2b.iam.gserviceaccount.com"
}
